<?xml version="1.0" encoding="utf-8"?>
<!-- Generator: Adobe Illustrator 18.1.1, SVG Export Plug-In . SVG Version: 6.00 Build 0)  -->
<svg version="1.1" id="Layer_1" xmlns:sketch="http://www.bohemiancoding.com/sketch/ns"
	 xmlns="http://www.w3.org/2000/svg" xmlns:xlink="http://www.w3.org/1999/xlink" x="0px" y="0px" viewBox="-260 215 439 131"
	 enable-background="new -260 215 439 131" xml:space="preserve">
<title>Roadmap naar klantsu</title>
<desc>Created with Sketch.</desc>
<g>
	<path fill="#FFFFFF" d="M178.4,329.2c-0.1-0.4-0.4-0.8-0.9-1.4c-0.3-0.3-0.6-0.6-0.9-0.7c-0.3-0.2-0.6-0.3-1-0.4
		c-0.3-0.1-0.7-0.1-1-0.2c-0.3,0-0.7,0-1,0c-1.5,0-2.7,0.1-3.6,0.2c-1,0.1-1.8,0.1-2.4,0.2c-0.7,0-1.2,0.1-1.7,0.1c-0.5,0-1,0-1.5,0
		c-0.5,0-1.1-0.1-1.8-0.2c-0.1,0-0.2,0-0.3,0l0-1.7c-0.8,0-1.7,0-2.7-0.2c-1-0.1-2-0.3-3-0.5c-1-0.3-2-0.6-2.9-1
		c-0.9-0.4-1.7-0.9-2.3-1.5c-0.2-0.2-0.4-0.4-0.5-0.6s-0.2-0.4-0.3-0.7c-0.1-0.3-0.1-0.5,0-0.9s0.1-0.7,0.2-1.1
		c1.1,0.6,2.3,1.1,3.5,1.4s2.3,0.4,3.5,0.4s2.1-0.2,3-0.6c0.9-0.3,1.7-0.8,2.3-1.5c0.6-0.6,1-1.2,1.2-1.9c0.2-0.7,0.3-1.4,0.3-2
		c0-0.7-0.2-1.4-0.5-2s-0.8-1.3-1.3-1.8c-0.7-0.7-1.5-1.2-2.3-1.5c-0.8-0.3-1.7-0.5-2.6-0.5s-1.8,0.1-2.7,0.3s-1.8,0.5-2.6,0.9
		c-0.8,0.4-1.6,0.9-2.3,1.4c-0.2,0.1-0.4,0.3-0.6,0.4c-0.6,0.1-1.2,0.2-1.9,0.3c-1.1,0.1-2.1,0.2-3.2,0.2c-1.1,0-2-0.1-3-0.3
		c-0.9-0.2-1.6-0.5-2.2-0.9c-0.5-0.4-0.9-0.9-1.1-1.4c-0.2-0.5-0.2-1-0.1-1.6c0.1-0.5,0.3-1,0.5-1.5c0.3-0.5,0.6-0.9,0.9-1.3
		c0.2-0.3,0.5-0.6,0.8-1c0.3-0.4,0.7-0.8,1.2-1.1c0.4-0.4,0.9-0.7,1.4-1.1c0.5-0.3,1-0.6,1.5-0.8c0.5-0.2,1-0.2,1.5-0.2
		s1,0.2,1.4,0.6c0.2,0.2,0.2,0.3,0.2,0.6s-0.2,0.5-0.5,0.7c-0.1,0.2-0.3,0.4-0.5,0.6c-0.2,0.2-0.4,0.4-0.5,0.6
		c-0.4,0.5-0.6,0.9-0.7,1.4s0.2,0.8,0.7,1.2c0.3,0.3,0.7,0.4,1.2,0.5c0.4,0,0.9,0,1.3-0.1c0.4-0.1,0.8-0.4,1.2-0.6
		c0.4-0.3,0.7-0.6,1.1-1c0.4-0.5,0.7-1.1,0.9-1.8c0.2-0.6,0.2-1.3,0.1-2c-0.1-0.7-0.4-1.3-0.7-1.9c-0.4-0.6-0.9-1.2-1.5-1.7
		c-0.7-0.6-1.5-1-2.4-1.2c-0.8-0.2-1.7-0.3-2.6-0.3c-0.9,0.1-1.8,0.2-2.6,0.5c-0.9,0.3-1.7,0.7-2.5,1.2s-1.6,1-2.3,1.6
		c-0.4,0.4-0.8,0.8-1.2,1.2c-0.2,0.1-0.5,0.1-0.7,0.2c-1.1,0.2-2.1,0.4-3.2,0.4c-1.1,0.1-2,0-3-0.1c-0.9-0.1-1.7-0.4-2.2-0.8
		c-0.6-0.4-1-0.8-1.2-1.3c-0.2-0.5-0.3-1-0.2-1.6s0.2-1.1,0.4-1.6c0.2-0.5,0.5-1,0.8-1.4c0.2-0.3,0.4-0.6,0.8-1
		c0.3-0.4,0.7-0.8,1.1-1.2c0.4-0.4,0.8-0.8,1.3-1.2c0.5-0.4,0.9-0.7,1.4-0.9c0.5-0.2,1-0.3,1.5-0.3c0.5,0,1,0.2,1.5,0.5
		c0.2,0.1,0.3,0.3,0.2,0.5c-0.1,0.2-0.2,0.5-0.4,0.8c-0.1,0.2-0.3,0.4-0.5,0.6s-0.3,0.4-0.5,0.7c-0.4,0.5-0.5,1-0.6,1.4
		s0.2,0.8,0.8,1.2c0.4,0.2,0.8,0.4,1.2,0.4s0.8-0.1,1.3-0.2c0.4-0.2,0.8-0.4,1.2-0.7c0.4-0.3,0.7-0.7,1-1.1c0.4-0.6,0.6-1.2,0.8-1.9
		c0.1-0.7,0.1-1.3-0.1-2c-0.2-0.6-0.5-1.3-0.9-1.9c-0.4-0.6-1-1.1-1.7-1.6c-0.8-0.5-1.6-0.9-2.5-1c-0.9-0.2-1.7-0.2-2.6-0.1
		c-0.9,0.1-1.7,0.4-2.6,0.8c-0.9,0.4-1.7,0.8-2.4,1.4c-0.8,0.5-1.5,1.1-2.1,1.8c-0.6,0.7-1.2,1.3-1.7,2c-0.2,0.2-0.3,0.5-0.5,0.7
		c-0.2,0-0.4,0.1-0.6,0.1c-0.6,0-1.2,0.1-1.8,0c-0.6,0-1.1-0.1-1.6-0.1c-0.5-0.1-0.8-0.2-1.1-0.3c-0.3-0.1-0.4-0.3-0.5-0.5
		c-0.1-0.2-0.1-0.4,0-0.7s0.2-0.5,0.3-0.8c0.1-0.3,0.3-0.6,0.5-1c0.1-0.2,0.3-0.5,0.7-0.9c0.3-0.4,0.7-1,1.2-1.5
		c0.5-0.6,1-1.2,1.5-1.9c0.5-0.7,1.1-1.3,1.6-1.9c0.5-0.6,1-1.2,1.3-1.8c0.4-0.5,0.7-1,0.9-1.3c0.2-0.4,0.2-0.7-0.1-1.2
		s-0.7-0.8-1.3-1.2c-0.6-0.3-1.1-0.5-1.7-0.5s-1,0.1-1.2,0.3l-7.1,8.5c-0.4,0.4-0.8,0.8-1.2,1.1s-0.8,0.5-1.2,0.6
		c-0.4,0.1-0.8,0.2-1.2,0.2s-0.7-0.1-1-0.2c-0.2-0.1-0.3-0.2-0.4-0.4c-0.1-0.2-0.1-0.4-0.1-0.6c0-0.2,0-0.4,0.1-0.7s0.2-0.5,0.3-0.7
		c0,0,0.1-0.2,0.4-0.5c0.3-0.3,0.6-0.8,1.1-1.4c0.4-0.6,0.9-1.2,1.5-1.9c0.6-0.7,1.1-1.4,1.7-2.2s1.2-1.5,1.8-2.2
		c0.6-0.7,1.1-1.4,1.6-2c0.1-0.2,0.1-0.5-0.1-0.8s-0.6-0.6-1.3-1c-0.4-0.2-0.8-0.3-1.3-0.3c-0.4,0-0.9,0.1-1.3,0.3
		c-0.4,0.2-0.8,0.4-1.2,0.7s-0.7,0.6-1.1,0.9c-0.3,0.3-0.6,0.6-0.9,0.9c-0.2,0.3-0.4,0.5-0.6,0.7c-1.3,1.6-2.4,3-3.4,4.3
		c-0.1,0-0.3,0-0.4,0c-0.8,0.1-1.5,0.1-2.2,0.1s-1.4,0-2.1,0c-0.7,0-1.3,0.1-1.9,0.2c0.4-0.8,0.7-1.6,0.9-2.2
		c0.2-0.6,0.4-1.2,0.5-1.7c0.1-0.5,0.2-1,0.3-1.4c0.1-0.4,0.1-0.8,0.2-1.2s0.1-0.7,0.2-1.1c0.1-0.4,0.2-0.7,0.4-1.1
		c0.1-0.1,0.4-0.3,0.8-0.4c0.4-0.2,0.8-0.4,1.3-0.6c0.5-0.2,0.9-0.5,1.3-0.7c0.4-0.3,0.7-0.6,0.8-0.9c0.1-0.2,0.1-0.3,0.2-0.6
		c0.1-0.2,0.1-0.5,0-0.7c-0.1-0.3-0.2-0.5-0.5-0.8c-0.3-0.3-0.7-0.6-1.4-0.9c-0.4-0.2-0.7-0.3-1.1-0.3s-0.7,0-1,0
		c-0.3,0.1-0.7,0.2-1,0.3c-0.3,0.1-0.6,0.3-0.9,0.4c-1.3,0.7-2.4,1.2-3.2,1.7s-1.6,0.8-2.1,1.2c-0.6,0.3-1.1,0.6-1.5,0.8
		c-0.4,0.2-0.9,0.4-1.4,0.6c-0.5,0.2-1,0.4-1.7,0.6c-0.4,0.1-0.9,0.3-1.5,0.5l0.7-2c-0.6,0.3-1.2,0.5-1.8,0.8
		c-0.7,0.2-1.3,0.4-2,0.6s-1.4,0.3-2,0.4c-0.7,0.1-1.3,0.2-1.9,0.2c-0.6,0-1.1,0.1-1.6,0c-0.5,0-0.8-0.1-1.1-0.2
		c-0.5-0.2-0.8-0.4-1.2-0.7c-0.3-0.3-0.5-0.6-0.7-1c-0.1-0.4-0.2-0.9-0.1-1.4c0.1-0.5,0.2-1.2,0.5-1.9c0.1-0.3,0.2-0.6,0.4-0.9
		s0.3-0.7,0.4-1c0.2-0.4,0.3-0.7,0.5-1.1s0.3-0.7,0.4-1.1c0.3-0.8,0.7-1.6,1.1-2.4c0.5-0.3,1-0.6,1.6-1c0.6-0.4,1.2-0.7,1.8-1.1
		l7.7,2.9c0.3,0.1,0.7,0.1,1.1-0.1s0.7-0.5,0.8-1c0.1-0.4,0.2-0.7,0.2-1c0-0.3-0.2-0.5-0.4-0.6c-0.2-0.1-0.5-0.2-0.8-0.4
		c-0.3-0.1-0.7-0.3-1.1-0.5s-0.8-0.3-1.2-0.5s-0.8-0.4-1.2-0.5s-0.7-0.3-1-0.4c-0.3-0.1-0.5-0.2-0.6-0.3c0.8-0.6,1.5-1.2,2.3-1.8
		c0.7-0.6,1.4-1.2,2-1.9c0.6-0.6,1.1-1.3,1.6-1.9s0.8-1.3,1.1-2c0.3-0.8,0.5-1.6,0.6-2.3c0.1-0.8,0.1-1.5-0.1-2.2
		c-0.1-0.7-0.4-1.2-0.7-1.7s-0.8-0.9-1.4-1.1c-0.9-0.3-1.9-0.3-3,0.2c-1.1,0.5-2.3,1.3-3.5,2.3s-2.4,2.3-3.6,3.8
		c-1.2,1.5-2.3,3.1-3.4,4.7c-0.1,0-0.4-0.1-0.7-0.2c-0.4-0.1-0.7-0.3-1.2-0.5c-0.4-0.2-0.9-0.4-1.4-0.5c-0.5-0.2-1-0.3-1.4-0.4
		s-0.8-0.1-1.1-0.1c-0.3,0-0.5,0.2-0.6,0.5c0,0.1-0.1,0.3-0.1,0.4c-0.1,0.2-0.1,0.4,0,0.5s0.1,0.4,0.2,0.5c0.1,0.2,0.3,0.4,0.7,0.5
		c0.7,0.4,1.2,0.6,1.6,0.8c0.4,0.2,0.7,0.4,0.9,0.5c0.2,0.1,0.4,0.3,0.6,0.4s0.5,0.3,0.9,0.5c-0.5,0.9-0.9,1.7-1.3,2.6
		c-0.4,0.9-0.8,1.7-1.1,2.5c-0.6,1.5-1,2.9-1.4,4.2c-0.9,0.5-1.7,0.9-2.5,1.2c-0.4,0.2-0.8,0.3-1.2,0.5s-0.8,0.3-1.2,0.4
		c-0.4,0.1-0.7,0.2-1,0.2s-0.6,0-0.8,0c-0.5-0.1-0.7-0.5-0.7-1.1c0-0.6,0.1-1.3,0.3-2.2c0.2-0.5,0.4-1.1,0.6-1.6
		c0.2-0.6,0.5-1.2,0.8-1.8c0.3-0.6,0.6-1.2,0.9-1.7s0.6-1.1,0.8-1.5c0.2-0.5,0.5-0.9,0.6-1.2c0.2-0.3,0.3-0.6,0.3-0.7
		c0.3-1,0.4-1.9,0.1-2.6s-0.7-1.2-1.4-1.4c-0.7-0.2-1.3-0.3-2-0.2c-0.6,0.1-1.3,0.5-2,1.1c-0.1,0.1-0.4,0.3-0.7,0.6
		c-0.3,0.3-0.6,0.6-1,1c-0.4,0.4-0.8,0.8-1.2,1.2c-0.4,0.4-0.8,0.8-1.2,1.2c-0.4,0.4-0.7,0.7-1,1c-0.3,0.3-0.5,0.5-0.6,0.6l-0.4-0.1
		c0-0.1,0.1-0.3,0.2-0.5s0.3-0.6,0.5-0.9c0.2-0.4,0.4-0.7,0.6-1.2s0.4-0.8,0.6-1.2c0.2-0.4,0.4-0.8,0.5-1.1c0.1-0.3,0.3-0.6,0.3-0.8
		c0.2-0.8,0.3-1.4,0.1-1.9s-0.6-0.9-1.3-1.2s-1.4-0.2-2,0.1c-0.6,0.3-1,0.7-1.4,1.3c-0.4,0.7-0.9,1.7-1.5,2.7
		c-0.6,1.1-1.1,2.2-1.6,3.4c-0.2,0.4-0.3,0.8-0.5,1.1c-0.7,0.6-1.5,1.1-2.1,1.6c-0.4,0.3-0.8,0.5-1.2,0.7s-0.8,0.4-1.2,0.6
		c-0.4,0.2-0.8,0.3-1.1,0.3c-0.4,0.1-0.7,0.1-1,0c-0.4-0.1-0.6-0.3-0.6-0.7c0-0.4,0-0.9,0.2-1.6c0.2-0.8,0.4-1.6,0.8-2.4
		c0.3-0.8,0.7-1.6,1.1-2.5c0.4-0.8,0.7-1.6,1.1-2.4c0.3-0.8,0.6-1.5,0.7-2.2c0.1-0.4,0.1-0.8,0.1-1.1c0-0.3-0.1-0.5-0.2-0.7
		c-0.1-0.2-0.2-0.3-0.4-0.4s-0.4-0.2-0.6-0.2c-0.2,0-0.3-0.1-0.5-0.1c-0.2,0-0.3-0.1-0.5-0.1c-0.2,0-0.4-0.1-0.5-0.2
		c-0.2-0.1-0.3-0.1-0.5-0.3c-0.2-0.1-0.3-0.3-0.3-0.4c-0.1-0.2-0.2-0.4-0.2-0.6c-0.1-0.2-0.2-0.4-0.3-0.5c-0.2-0.2-0.4-0.3-0.7-0.4
		c-1-0.2-2-0.3-3-0.1c-1,0.2-2,0.5-3,1c-1,0.5-2,1.1-2.9,1.9c-0.9,0.8-1.8,1.6-2.5,2.5s-1.4,1.9-2,2.9c-0.2,0.4-0.4,0.7-0.5,1.1
		c-0.3,0.1-0.6,0.3-0.9,0.4c-0.4,0.2-0.9,0.3-1.3,0.5c-0.5,0.2-0.9,0.3-1.3,0.4s-0.8,0.2-1.2,0.2s-0.7,0-1,0c-0.1,0-0.2-0.1-0.3-0.3
		s-0.2-0.4-0.2-0.7c-0.1-0.3-0.1-0.6-0.1-1c0-0.4,0-0.7,0.1-1.1l0.1-0.3c0.1-0.3,0.2-0.5,0.3-0.8c0.1-0.3,0.3-0.5,0.4-0.8
		c0.1-0.2,0.2-0.5,0.4-0.7c0.1-0.2,0.2-0.4,0.3-0.5c0.9-1.1,1.9-2.3,2.9-3.5c1-1.2,2-2.4,3-3.6c1-1.2,2-2.5,2.9-3.7
		c1-1.3,1.8-2.5,2.6-3.8c0.8-1.3,1.5-2.6,2-3.9s1-2.6,1.3-3.9c0.1-0.6,0.2-1.2,0.2-1.8c0-0.6,0-1.1-0.2-1.6
		c-0.1-0.5-0.4-0.9-0.7-1.3c-0.3-0.4-0.8-0.6-1.4-0.7c-0.9-0.2-1.8-0.1-2.8,0.3c-1,0.4-1.9,0.9-2.9,1.7s-1.9,1.7-2.9,2.8
		c-1,1.1-1.9,2.3-2.8,3.7c-0.9,1.3-1.8,2.7-2.6,4.2c-0.8,1.5-1.5,3-2.2,4.4c-0.7,1.5-1.2,2.9-1.7,4.4c-0.5,1.4-0.8,2.8-1.1,4
		c-0.1,0.7-0.3,1.4-0.3,2.1c-0.2,0.2-0.4,0.3-0.6,0.6c-0.3,0.3-0.7,0.7-1.1,1s-0.8,0.7-1.2,1c-0.4,0.3-0.8,0.6-1.2,0.9
		s-0.8,0.5-1.1,0.6c-0.4,0.1-0.7,0.2-1,0.2c-0.5-0.1-0.9-0.2-1.1-0.5c-0.2-0.3-0.3-0.6-0.2-1.1c0.1-0.6,0.3-1.2,0.7-1.7
		c0.4-0.6,0.8-1.1,1.3-1.7c0.5-0.5,1-1.1,1.6-1.6c0.6-0.5,1.1-1.1,1.6-1.6c0.5-0.5,0.9-1.1,1.3-1.6c0.4-0.6,0.6-1.1,0.7-1.7
		c0.1-0.6,0.1-1.1,0-1.6c-0.1-0.5-0.2-0.9-0.5-1.3s-0.5-0.7-0.8-0.9c-0.3-0.2-0.7-0.4-1.1-0.4c-0.8-0.1-1.5-0.1-2.2,0
		c-0.7,0.1-1.2,0.3-1.7,0.6c-0.3,0.2-0.7,0.5-1.3,1c-0.6,0.5-1.2,1-1.9,1.7c-0.7,0.6-1.4,1.3-2.1,2s-1.4,1.3-2,1.9l-0.5-0.4l3-3.5
		c0.2-0.2,0.5-0.7,1-1.3c0.5-0.7,1.1-1.5,1.7-2.5c0.7-1,1.3-2.1,2.1-3.4c0.7-1.2,1.4-2.5,2.1-3.9s1.2-2.7,1.7-4
		c0.5-1.4,0.8-2.6,1-3.8c0.1-0.7,0.1-1.3,0.1-1.9c0-0.6-0.2-1.1-0.4-1.6c-0.2-0.5-0.5-0.8-1-1.1s-1-0.5-1.7-0.6
		c-0.9-0.1-1.8,0-2.6,0.2c-0.8,0.3-1.6,0.7-2.4,1.3c-0.7,0.6-1.4,1.3-2.1,2.1c-0.6,0.8-1.2,1.7-1.8,2.6c-0.5,0.9-1.1,1.9-1.5,2.9
		c-0.5,1-0.9,1.9-1.2,2.9c-0.4,0.9-0.7,1.8-0.9,2.6c-0.3,0.8-0.5,1.5-0.7,2.1c-0.5,1.6-0.9,3.3-1.4,5c-0.4,1.7-0.8,3.4-1.1,5
		c-0.3,1.6-0.6,3-0.8,4.4c-0.2,1.3-0.4,2.4-0.5,3.2c-0.1,0.7-0.1,1.3-0.2,1.9c0,0.6,0,1.1,0.1,1.6c0.1,0.5,0.3,0.9,0.7,1.2
		c0.3,0.3,0.8,0.5,1.4,0.6c0.5,0.1,0.9,0,1.2-0.2c0.4-0.2,0.8-0.5,1.2-1l7.7-10.1c0.6-0.7,1.1-1.2,1.5-1.5c0.4-0.3,0.8-0.4,1-0.3
		c0.2,0,0.3,0.1,0.4,0.3s0.1,0.4,0.1,0.7c0,0.2-0.1,0.3-0.2,0.4s-0.2,0.3-0.4,0.4c-0.2,0.1-0.4,0.3-0.6,0.5
		c-0.2,0.2-0.5,0.4-0.8,0.6c-0.7,0.7-1.4,1.4-1.9,2.1c-0.5,0.7-0.9,1.3-1.2,1.8c-0.3,0.6-0.5,1.1-0.7,1.5c-0.1,0.5-0.2,0.9-0.3,1.2
		c-0.1,0.6-0.1,1.1,0,1.6c0.1,0.5,0.3,1,0.6,1.5c0.3,0.5,0.8,0.9,1.4,1.2c0.6,0.3,1.4,0.6,2.5,0.7c0.8,0.1,1.6,0.1,2.5,0
		c0.9-0.1,1.7-0.3,2.6-0.6s1.6-0.7,2.4-1.1c0.4-0.2,0.7-0.5,1-0.7c0,0.3,0.1,0.5,0.1,0.8c0.3,1.2,0.6,2.2,1.2,3
		c0.5,0.8,1.2,1.3,1.9,1.4c0.5,0.1,1,0.1,1.6,0.1c0.6,0,1.2-0.1,1.8-0.2c0.6-0.1,1.2-0.3,1.9-0.4c0.6-0.2,1.2-0.4,1.8-0.5
		c0.1,0,0.2-0.1,0.3-0.1c0.1,0.5,0.3,1.1,0.6,1.5c0.4,0.6,0.8,1.1,1.4,1.6s1.2,0.7,1.9,0.9c0.6,0.2,1.3,0.2,2,0.1
		c0.7-0.1,1.3-0.2,2-0.4s1.3-0.4,1.9-0.7c0.6-0.3,1.1-0.6,1.5-0.9c0.2,1.2,0.5,2.2,1,3s1.2,1.2,2.1,1.4c0.8,0.2,1.6,0.2,2.4,0
		c0.9-0.2,1.7-0.5,2.5-0.9c0.4-0.2,0.7-0.4,1.1-0.6c0,0.2-0.1,0.4-0.2,0.6c-0.1,0.5-0.1,1-0.1,1.5c0.1,0.5,0.2,0.9,0.5,1.2
		c0.3,0.3,0.7,0.6,1.2,0.8c0.5,0.1,0.9,0.2,1.3,0.1c0.4-0.1,0.8-0.4,1.3-0.9l8.7-9l0.3,0.1c-0.5,1-1,2-1.4,2.9s-0.7,1.8-1,2.6
		c-0.6,2.1-0.9,3.8-0.7,5c0.2,1.2,0.6,2,1.4,2.2c0.8,0.2,1.5,0.3,2.3,0.3s1.5-0.1,2.2-0.2c0.7-0.1,1.5-0.3,2.2-0.6
		c0.7-0.2,1.4-0.5,2.1-0.7l1.1-0.4c0,0.6,0,1.1,0,1.7c0.1,1.4,0.4,2.5,0.9,3.4c0.5,0.9,1.3,1.6,2.3,1.9c0.5,0.2,1.1,0.3,1.8,0.4
		s1.5,0,2.4,0c0.9-0.1,2-0.2,3.2-0.4c0.5-0.1,1-0.1,1.5-0.2c0,0,0.1,0.1,0.2,0.1c0.2,0.1,0.4,0.2,0.6,0.3c0.2,0.1,0.3,0.1,0.5,0.2
		c0.2,0.1,0.4,0.1,0.6,0.2c-0.3,0.7-0.3,1.4-0.3,2.1c0.1,0.6,0.3,1.2,0.7,1.8c0.4,0.5,0.8,1,1.4,1.5c0.6,0.4,1.3,0.8,2.1,1.2
		c1.1,0.5,2.3,0.9,3.6,1.2c1.3,0.3,2.6,0.5,4,0.6s2.7,0.1,4,0.1c0.2,0,0.4,0,0.6-0.1c-0.3,0.5-0.4,1-0.5,1.5c-0.1,0.6-0.1,1.2,0,1.7
		s0.3,0.9,0.6,1.2c0.3,0.3,0.6,0.6,1.1,0.8c0.5,0.3,1.1,0.5,1.7,0.5c0.6,0.1,1.3,0.1,2.1,0s1.5-0.2,2.2-0.4c0.8-0.2,1.5-0.5,2.3-0.8
		c-0.2,0.6-0.3,1.3-0.4,1.8c-0.1,0.6-0.1,1.1,0,1.6c0.1,0.5,0.2,0.9,0.4,1.3s0.6,0.7,1.1,1c0.5,0.3,1,0.5,1.7,0.7
		c0.6,0.2,1.3,0.3,2,0.4c0.7,0.1,1.4,0.1,2.1,0.2c0.7,0,1.4,0,2.1,0c0,0,0,0,0.1,0c-0.1,0.6-0.1,1.2,0,1.8c0.1,1.1,0.4,2.1,1,3
		c0.6,1,1.4,1.8,2.5,2.6c0.6,0.4,1.3,0.7,2.1,1c0.7,0.2,1.5,0.4,2.3,0.4c0.8,0.1,1.6,0.1,2.3,0s1.5-0.1,2.3-0.3
		c0.3-0.1,0.6-0.1,1-0.2c0,0,0,0,0,0c-0.4,1.1-0.6,2.1-0.6,3.2c0,1.1,0.3,2.1,0.7,3.1c0.5,1,1.2,1.9,2.3,2.7c0.6,0.5,1.3,0.9,2,1.1
		c0.7,0.3,1.5,0.5,2.2,0.6s1.5,0.2,2.3,0.2s1.6,0,2.3-0.1c0.5-0.1,1.1-0.1,1.6-0.2c-0.1,0.2-0.2,0.4-0.3,0.6c-0.5,1-0.8,2.1-0.9,3.1
		c-0.1,1.1,0.1,2.1,0.5,3.2c0.4,1,1.1,2,2.1,3c0.6,0.6,1.3,1.1,2,1.5c0.7,0.4,1.5,0.8,2.3,1.1s1.6,0.6,2.4,0.7
		c0.5,0.1,1,0.2,1.5,0.3c0.1,0.1,0.2,0.2,0.2,0.3c0.1,0.1,0.2,0.3,0.4,0.4c0.1,0.1,0.3,0.3,0.4,0.4c-0.5,0.6-0.9,1.1-1.1,1.8
		c-0.2,0.6-0.2,1.2-0.1,1.9c0.1,0.6,0.3,1.3,0.7,1.9c0.4,0.7,0.8,1.3,1.4,1.9c0.8,0.9,1.7,1.8,2.7,2.6c1.1,0.8,2.2,1.6,3.4,2.2
		s2.4,1.3,3.6,1.8c1.2,0.5,2.4,0.9,3.5,1.1l3.6-3.1c-0.8-0.2-1.6-0.4-2.3-0.7c-0.7-0.3-1.4-0.6-2.1-0.9c-0.6-0.3-1.3-0.6-1.9-0.8
		s-1.2-0.5-1.8-0.7c0.7-0.6,1.3-1.1,1.7-1.6c0.5-0.5,0.9-0.9,1.2-1.4c0.3-0.4,0.6-0.8,0.8-1.1c0.2-0.3,0.4-0.7,0.6-1
		c0.2-0.3,0.4-0.6,0.6-0.9c0.2-0.3,0.5-0.6,0.9-0.9c0.1-0.1,0.4-0.1,0.9-0.1c0.4,0,0.9,0,1.4,0c0.5,0,1,0,1.5-0.1
		c0.5-0.1,0.9-0.2,1.1-0.4c0.1-0.1,0.3-0.3,0.4-0.4c0.2-0.2,0.3-0.4,0.3-0.7C178.5,329.9,178.5,329.5,178.4,329.2z M153.8,314.8
		c0.3-0.3,0.7-0.6,1.1-0.9c0.4-0.3,0.8-0.5,1.3-0.7s0.9-0.4,1.4-0.4c0.5-0.1,0.9,0,1.4,0.1c0.5,0.1,0.9,0.4,1.4,0.8
		c0.2,0.2,0.3,0.6,0.2,1.1c-0.1,0.5-0.4,0.9-0.8,1.4c-0.3,0.3-0.8,0.5-1.4,0.7c-0.6,0.1-1.2,0.1-1.9,0.1c-0.7-0.1-1.3-0.2-1.9-0.4
		c-0.6-0.2-1.1-0.5-1.5-0.9C153.2,315.4,153.4,315.1,153.8,314.8z M84.4,250.8c0.7-1,1.4-2,2.1-2.8c0.7-0.8,1.3-1.5,1.9-2
		s1.1-0.7,1.4-0.5c0.3,0.1,0.4,0.2,0.5,0.4c0.1,0.2,0.2,0.3,0.2,0.5c0,0.2,0,0.4-0.1,0.6c0,0.2-0.1,0.4-0.2,0.5
		c-0.2,0.4-0.5,0.9-1,1.5c-0.5,0.6-1,1.2-1.7,1.8c-0.6,0.6-1.3,1.3-2.1,1.9c-0.7,0.6-1.4,1.2-2.1,1.7c-0.2-0.1-0.4-0.2-0.6-0.3
		c-0.2-0.1-0.4-0.2-0.6-0.3C83,252.9,83.6,251.8,84.4,250.8z M27.8,238.7c0.5-1.4,1-2.7,1.6-4c0.6-1.3,1.2-2.5,1.9-3.6
		s1.3-2.1,2-2.9c0.7-0.8,1.3-1.4,1.8-1.9c0.6-0.4,1.1-0.6,1.5-0.5c0.1,0,0.2,0.2,0.1,0.5c0,0.3-0.1,0.6-0.2,1c-0.4,1.3-1,2.6-1.7,4
		s-1.6,2.8-2.5,4.1c-0.9,1.4-1.9,2.7-2.9,3.9s-1.9,2.4-2.8,3.4C27,241.4,27.3,240,27.8,238.7z M5.4,235.9c0.2-0.7,0.4-1.5,0.6-2.3
		c0.2-0.8,0.5-1.7,0.8-2.5c0.3-0.8,0.6-1.7,0.9-2.5s0.6-1.6,1-2.4c0.5-0.9,0.9-1.7,1.3-2.4c0.4-0.7,0.8-1.3,1.1-1.8s0.7-0.8,1.1-1.1
		s0.8-0.3,1.2-0.3c0.3,0,0.4,0.3,0.4,0.7c0,0.3-0.2,0.7-0.3,1.2c-0.2,0.5-0.4,0.9-0.6,1.5c-0.2,0.5-0.5,1.1-0.8,1.6
		c-0.3,0.6-0.6,1.1-0.9,1.6c-0.3,0.5-0.6,1-0.8,1.4c-0.2,0.4-0.4,0.8-0.6,1.1c-0.3,0.6-0.7,1.4-1.1,2.3S7.7,234,7.2,235
		c-0.5,1-1,2.1-1.5,3.1c-0.5,1.1-1,2-1.4,2.9C4.6,239.3,5,237.7,5.4,235.9z M42.2,253.7c-0.2,0.4-0.4,1-0.8,1.6
		c-0.3,0.6-0.8,1.2-1.2,1.8s-0.9,1-1.5,1.3c-0.5,0.3-1,0.5-1.6,0.3c-0.3-0.1-0.6-0.2-0.7-0.4c-0.2-0.2-0.3-0.5-0.4-0.7
		c-0.1-0.3-0.1-0.6-0.1-0.9c0-0.3,0.1-0.7,0.2-1c0.1-0.6,0.4-1.2,0.7-1.9c0.3-0.7,0.7-1.3,1.2-1.9s1-1.2,1.5-1.7
		c0.6-0.5,1.1-1,1.7-1.4s1.2-0.6,1.8-0.8s1.2-0.2,1.8,0L42.2,253.7z M95.8,274.2c0,0.3-0.1,0.7-0.2,1c-0.1,0.4-0.2,0.7-0.3,1.1
		s-0.3,0.8-0.4,1.1c-0.2,0.4-0.4,0.8-0.6,1.1c-0.2,0.3-0.5,0.6-0.9,0.8c-0.3,0.2-0.7,0.3-1.1,0.3c-0.4,0-0.9-0.1-1.4-0.3
		c-0.4-0.2-0.7-0.5-1-0.8s-0.4-0.7-0.6-1c-0.1-0.3-0.3-0.7-0.4-0.9c-0.1-0.3-0.2-0.5-0.4-0.5l7.3-2.7
		C95.8,273.6,95.8,273.9,95.8,274.2z M167,331.7c-0.2,0.3-0.4,0.6-0.6,0.9c-0.2,0.3-0.5,0.6-0.7,0.9c-0.3,0.3-0.6,0.6-0.8,0.8
		c-0.3,0.3-0.7,0.5-1.1,0.7c-0.4,0.2-0.7,0.3-1.1,0.4c-0.4,0-0.7,0-1.1-0.2c-0.4-0.2-0.8-0.4-1.1-0.9c-0.3-0.3-0.5-0.7-0.6-1.1
		c-0.1-0.4-0.1-0.8-0.1-1.2c0-0.4,0-0.7,0.1-1c0-0.3,0-0.5-0.1-0.6l7.8,0.6C167.4,331.1,167.2,331.4,167,331.7z"/>
	<path fill="#FFFFFF" d="M-14.7,241.3c-0.7,0.3-1.4,0.4-2,0.4c-0.2,0-0.4-0.1-0.7-0.1c-0.2-0.1-0.4-0.2-0.5-0.5
		c-0.2-0.2-0.3-0.5-0.4-0.8c-0.1-0.3-0.1-0.8-0.1-1.3c0-0.3,0.1-0.7,0.1-1.1c0.1-0.4,0.2-0.9,0.3-1.4c0.1-0.5,0.2-0.9,0.3-1.4
		c0.1-0.4,0.1-0.8,0.1-1c0-0.3,0-0.6-0.1-0.9c-0.1-0.3-0.3-0.5-0.4-0.6c-0.2-0.2-0.4-0.3-0.7-0.4c-0.3-0.1-0.5-0.2-0.8-0.2
		c-0.8,0-1.5,0.2-2.1,0.6s-1.2,0.9-1.7,1.5c-0.5,0.6-0.9,1.3-1.3,2s-0.7,1.3-1,1.9l-0.2,0c0-0.7,0-1.5,0-2.2c0-0.8,0-1.4,0.1-1.9
		c0-0.4,0-0.8,0-1.1c0-0.3-0.1-0.5-0.2-0.6s-0.2-0.2-0.5-0.3c-0.2,0-0.5-0.1-0.9-0.1c-0.3,0-0.6,0-0.8,0s-0.4,0.1-0.6,0.2
		c-0.2,0.1-0.3,0.2-0.4,0.4c-0.1,0.2-0.2,0.4-0.4,0.7c-0.2,0.5-0.4,1.1-0.6,1.8c-0.2,0.7-0.4,1.5-0.6,2.4s-0.4,1.8-0.6,2.7
		c-0.1,0.4-0.1,0.8-0.2,1.2c-0.7,1-1.3,1.9-1.9,2.6c-0.3,0.3-0.6,0.7-0.9,1c-0.3,0.3-0.6,0.6-1,0.9s-0.6,0.5-1,0.6
		c-0.3,0.2-0.6,0.3-0.9,0.3c-0.4,0-0.7-0.2-0.8-0.5c-0.1-0.4-0.2-0.9-0.3-1.6c0-0.8,0-1.6,0.1-2.5c0.1-0.9,0.2-1.8,0.3-2.7
		c0.1-0.9,0.2-1.8,0.3-2.6c0.1-0.8,0.1-1.6,0.1-2.3c0-0.4-0.1-0.8-0.2-1c-0.1-0.3-0.2-0.4-0.4-0.6s-0.3-0.2-0.5-0.3
		c-0.2,0-0.4,0-0.6,0c-0.2,0-0.3,0-0.5,0c-0.2,0-0.3,0-0.5,0c-0.2,0-0.4,0-0.5,0c-0.2,0-0.4-0.1-0.5-0.1c-0.2-0.1-0.3-0.2-0.4-0.3
		s-0.2-0.3-0.4-0.5c-0.1-0.2-0.3-0.3-0.5-0.4s-0.5-0.2-0.8-0.2c-1,0-1.9,0.3-2.9,0.8c-0.9,0.5-1.8,1.1-2.6,1.8
		c-0.8,0.8-1.6,1.6-2.3,2.6s-1.3,2-1.7,3.1s-0.8,2.2-1.1,3.4c-0.1,0.3-0.1,0.6-0.1,0.9c0,0-0.1,0.1-0.1,0.1
		c-0.3,0.4-0.5,0.7-0.8,1.1s-0.6,0.7-0.9,0.9c-0.3,0.3-0.6,0.5-0.9,0.7c-0.3,0.2-0.6,0.3-0.9,0.3c-0.4,0-0.7-0.1-0.8-0.5
		c-0.2-0.4-0.3-0.9-0.4-1.5c-0.1-0.8-0.1-1.6-0.1-2.5c0-0.9,0.1-1.8,0.2-2.7c0.1-0.9,0.1-1.8,0.2-2.6c0-0.8,0-1.6-0.1-2.3
		c-0.1-0.4-0.1-0.8-0.2-1c-0.1-0.2-0.2-0.4-0.4-0.6c-0.2-0.1-0.3-0.2-0.5-0.2c-0.2,0-0.4,0-0.6,0c-0.2,0-0.3,0-0.5,0.1
		c-0.2,0-0.3,0-0.5,0.1c-0.2,0-0.4,0-0.5,0c-0.2,0-0.4,0-0.5-0.1c-0.2-0.1-0.3-0.1-0.5-0.3c-0.1-0.1-0.3-0.3-0.4-0.4
		c-0.1-0.1-0.3-0.3-0.5-0.4c-0.2-0.1-0.5-0.1-0.8-0.1c-1,0.1-1.9,0.4-2.8,1c-0.9,0.5-1.7,1.2-2.5,2c-0.8,0.8-1.5,1.7-2.1,2.8
		c-0.6,1-1.1,2.1-1.5,3.3s-0.7,2.3-0.8,3.4c-0.1,0.5-0.1,1.1-0.1,1.6c-0.2,0.3-0.4,0.5-0.6,0.8c-0.3,0.3-0.6,0.6-0.8,0.9
		c-0.3,0.3-0.5,0.5-0.8,0.7c-0.2,0.2-0.5,0.3-0.7,0.3c-0.5,0.1-0.9-0.1-1.2-0.6s-0.6-1.2-0.8-2.1c-0.1-0.5-0.2-1.1-0.2-1.7
		c-0.1-0.6-0.1-1.3-0.1-1.9s0-1.3,0-1.9c0-0.6,0-1.2,0-1.7s0-1,0-1.4s0-0.6-0.1-0.8c-0.2-1-0.6-1.8-1.1-2.3
		c-0.5-0.5-1.1-0.7-1.9-0.6c-0.7,0.1-1.3,0.4-1.8,0.8c-0.5,0.4-0.9,1-1.2,1.9c-0.1,0.2-0.2,0.5-0.3,0.9c-0.1,0.4-0.3,0.8-0.4,1.3
		c-0.1,0.5-0.3,1-0.5,1.6c-0.2,0.6-0.3,1.1-0.5,1.6c-0.2,0.5-0.3,0.9-0.4,1.3c-0.1,0.4-0.2,0.7-0.3,0.8l-0.4,0.1
		c0-0.1,0-0.3-0.1-0.6s0-0.6,0-1c0-0.4,0-0.8,0-1.3c0-0.5,0-0.9-0.1-1.4c0-0.4,0-0.8-0.1-1.2c0-0.4-0.1-0.7-0.1-0.9
		c-0.2-0.8-0.4-1.4-0.8-1.8s-1-0.5-1.7-0.4s-1.3,0.5-1.7,1s-0.5,1.1-0.6,1.8c0,0.9,0,1.9,0,3.1c0,1.2,0.1,2.5,0.1,3.7
		c0.1,1.3,0.2,2.6,0.3,3.8s0.3,2.3,0.5,3.2c0.1,0.6,0.2,1.1,0.4,1.6c0.2,0.5,0.4,1,0.7,1.3c0.3,0.4,0.6,0.7,1,0.8
		c0.4,0.2,0.9,0.2,1.5,0.1c0.5-0.1,0.9-0.3,1.2-0.6c0.3-0.3,0.5-0.7,0.7-1.4l3.4-12.1l0.3-0.1c0.1,1.2,0.1,2.2,0.2,3.2
		c0.1,1,0.2,1.9,0.4,2.8c0.4,2.1,1,3.7,1.8,4.7c0.7,1,1.5,1.4,2.3,1.3c0.8-0.2,1.5-0.4,2.1-0.8c0.7-0.4,1.3-0.8,1.9-1.2
		c0.6-0.5,1.1-1,1.6-1.5c0.4,0.6,0.8,1.1,1.3,1.6c0.6,0.5,1.2,0.8,1.9,1c0.7,0.2,1.4,0.3,2,0.2c0.6-0.1,1.3-0.3,1.9-0.6
		c0.6-0.3,1.2-0.6,1.7-1s1-0.8,1.5-1.3s0.8-0.9,1.1-1.4c0.6,1.1,1.2,1.9,1.9,2.4c0.7,0.5,1.5,0.7,2.5,0.6c0.8-0.1,1.5-0.4,2.3-0.9
		c0.7-0.5,1.4-1,2-1.7c0.1-0.1,0.1-0.1,0.2-0.2c0.3,0.5,0.6,1,1,1.3c0.5,0.5,1.1,0.9,1.8,1.1c0.7,0.2,1.3,0.4,2,0.3
		c0.6,0,1.3-0.2,1.9-0.4c0.6-0.2,1.2-0.6,1.8-0.9c0.6-0.4,1.1-0.8,1.6-1.2c0.5-0.4,0.9-0.9,1.2-1.3c0.5,1.1,1.1,2,1.8,2.6
		c0.7,0.6,1.5,0.8,2.4,0.8c0.8,0,1.6-0.3,2.3-0.7c0.8-0.4,1.5-0.9,2.1-1.5c0.3-0.3,0.6-0.6,0.9-0.9c0,0.3,0,0.6,0,0.8
		c0,0.5,0.2,1,0.3,1.5c0.2,0.4,0.4,0.8,0.8,1s0.8,0.4,1.4,0.4c0.3,0,0.5,0,0.7-0.1c0.2-0.1,0.4-0.2,0.6-0.5c0.2-0.2,0.4-0.5,0.6-0.9
		c0.2-0.4,0.4-0.8,0.6-1.4l4.2-10.6l0.3,0c0.1,0.9,0.2,1.8,0.4,2.7c0.2,0.9,0.4,1.7,0.8,2.4c0.4,0.7,0.9,1.3,1.5,1.8
		c0.6,0.5,1.5,0.7,2.6,0.7c0.6,0,1.2-0.1,1.8-0.2c0.6-0.2,1.1-0.4,1.7-0.6c0.5-0.2,1.1-0.5,1.5-0.8c0.5-0.3,0.9-0.5,1.3-0.8l0.5-5
		c-0.7,0.5-1.3,1-2,1.4C-13.3,240.7-14,241-14.7,241.3z M-64.1,242.4c0,0.5-0.1,1-0.2,1.8c-0.1,0.7-0.3,1.4-0.5,2.1
		c-0.2,0.7-0.5,1.3-0.9,1.8s-0.8,0.8-1.3,0.9c-0.3,0-0.6,0-0.8-0.1c-0.2-0.1-0.4-0.3-0.6-0.6c-0.2-0.2-0.3-0.5-0.4-0.9
		c-0.1-0.3-0.2-0.7-0.2-1c-0.1-0.6-0.1-1.3,0-2c0.1-0.7,0.2-1.5,0.4-2.2s0.5-1.5,0.8-2.1c0.3-0.7,0.7-1.3,1.1-1.9
		c0.4-0.6,0.9-1,1.4-1.4c0.5-0.4,1.1-0.6,1.7-0.6L-64.1,242.4z M-43.4,241.6c0,0.5-0.1,1-0.3,1.7c-0.2,0.7-0.4,1.4-0.7,2
		c-0.3,0.7-0.6,1.2-1,1.7c-0.4,0.5-0.9,0.7-1.4,0.8c-0.3,0-0.6-0.1-0.8-0.2c-0.2-0.2-0.4-0.4-0.5-0.6c-0.1-0.3-0.2-0.6-0.3-0.9
		c-0.1-0.3-0.1-0.7-0.1-1c0-0.6,0-1.3,0.2-2c0.1-0.7,0.3-1.4,0.6-2.2c0.3-0.7,0.6-1.4,1-2.1c0.4-0.7,0.8-1.3,1.3-1.8
		c0.5-0.5,1-0.9,1.5-1.3c0.5-0.3,1.1-0.5,1.7-0.5L-43.4,241.6z"/>
	<path fill="#FFFFFF" d="M-105.7,251.3c-0.5,0.9-1.2,1.7-2,2.4c-0.8,0.8-1.7,1.5-2.7,2.1c-1,0.6-2.3,1.2-3.6,1.6l-0.3-0.4
		c1-0.9,1.9-1.9,2.6-2.9c0.7-1,1.2-2,1.5-2.9c0.3-1,0.5-1.9,0.5-2.9c0-1-0.2-1.9-0.5-2.8c-0.4-1.2-0.8-2.1-1.4-2.8
		c-0.6-0.7-1.2-1.2-1.9-1.5c-0.7-0.3-1.5-0.5-2.3-0.5s-1.6,0.1-2.4,0.4c-1.1,0.4-2,0.9-2.7,1.5s-1.2,1.4-1.5,2.3
		c-0.3,0.9-0.5,1.8-0.6,2.9s0,2.1,0.1,3.3c0.1,1.1,0.3,2.3,0.5,3.4c0,0.3,0.1,0.5,0.1,0.8l-1.7-2.4c-0.3,1.2-0.6,2.3-1,3.2
		c-0.2,0.4-0.3,0.8-0.5,1.3c-0.2,0.4-0.4,0.8-0.6,1.2c-0.2,0.4-0.4,0.7-0.7,0.9c-0.2,0.3-0.5,0.5-0.8,0.6c-0.4,0.2-0.7,0.1-0.9-0.2
		c-0.3-0.3-0.5-0.8-0.8-1.4c-0.3-0.7-0.6-1.5-0.8-2.4s-0.4-1.7-0.6-2.6s-0.4-1.7-0.6-2.6c-0.2-0.8-0.4-1.6-0.7-2.2
		c-0.2-0.4-0.3-0.7-0.5-0.9c-0.2-0.2-0.4-0.3-0.5-0.4c-0.2-0.1-0.4-0.1-0.6-0.1c-0.2,0-0.4,0.1-0.6,0.2c-0.1,0.1-0.3,0.1-0.4,0.2
		c-0.1,0.1-0.3,0.1-0.4,0.2c-0.2,0.1-0.3,0.1-0.5,0.2c-0.2,0-0.4,0.1-0.5,0.1c-0.2,0-0.4-0.1-0.5-0.2c-0.2-0.1-0.3-0.2-0.5-0.3
		c-0.2-0.1-0.4-0.2-0.6-0.2c-0.2,0-0.5,0-0.8,0.1c-0.9,0.4-1.7,0.9-2.4,1.7c-0.7,0.8-1.3,1.6-1.8,2.6c-0.5,1-0.9,2.1-1.2,3.2
		c-0.3,1.2-0.5,2.3-0.6,3.5c0,0.5,0,1,0,1.5c-0.2,0.9-0.4,1.7-0.6,2.4c-0.1,0.4-0.3,0.8-0.4,1.2c-0.2,0.4-0.3,0.8-0.5,1.1
		c-0.2,0.3-0.4,0.7-0.6,0.9c-0.2,0.3-0.5,0.5-0.7,0.6c-0.2,0.1-0.6,0.1-1-0.3c-0.4-0.3-0.8-0.8-1.2-1.5c-0.5-0.9-0.9-1.7-1.3-2.5
		c-0.3-0.8-0.7-1.6-1-2.4c-0.3-0.8-0.6-1.6-1-2.4s-0.8-1.7-1.3-2.5c-0.3-0.6-0.8-0.9-1.3-1c-0.6-0.1-1.2,0.1-1.7,0.4
		c-0.5,0.3-0.9,0.7-1,1.3c-0.2,0.5-0.3,1.2-0.4,1.9c-0.1,0.7-0.1,1.5-0.2,2.5s-0.1,1.8-0.1,2.6c0,0.8-0.1,1.5-0.1,2.1s0,0.9,0,0.9
		l-0.3-0.1c0,0,0-0.1-0.1-0.2c0-0.1-0.1-0.3-0.2-0.6c-0.1-0.5-0.3-0.9-0.4-1.4c-0.1-0.4-0.3-0.9-0.4-1.4c-0.1-0.5-0.3-0.9-0.5-1.4
		c-0.2-0.5-0.4-0.9-0.7-1.4c-0.3-0.6-0.8-0.9-1.3-1c-0.5-0.1-1.1,0-1.6,0.3c-0.6,0.3-0.9,0.8-1.2,1.3c-0.2,0.6-0.4,1.2-0.4,1.9
		c-0.1,0.7-0.1,1.5-0.2,2.4c0,0.9-0.1,1.8-0.1,2.6c0,0.8,0,1.5,0,2.1c0,0.6,0,0.9,0,0.9l-0.3-0.1c-0.3-0.9-0.6-1.7-0.9-2.5
		c-0.1-0.3-0.3-0.7-0.4-1c-0.1-0.4-0.3-0.7-0.4-1c-0.1-0.3-0.3-0.6-0.4-0.9c-0.1-0.3-0.3-0.5-0.4-0.7c-0.2-0.4-0.4-0.7-0.6-0.9
		c-0.2-0.2-0.3-0.3-0.5-0.4c-0.2,0-0.4,0-0.7,0.1c-0.3,0.1-0.7,0.3-1.1,0.6c-0.3,0.2-0.6,0.3-0.7,0.5s-0.3,0.3-0.4,0.6
		c-0.1,0.2-0.1,0.5-0.1,0.8s0.1,0.7,0.2,1.2c0.1,0.5,0.2,1,0.4,1.7s0.4,1.5,0.7,2.3c0.3,0.8,0.6,1.7,0.9,2.5
		c0.3,0.7,0.5,1.4,0.8,2.1l-0.7-0.8c-0.3,1.1-0.6,2.1-0.9,3c-0.1,0.4-0.3,0.8-0.5,1.2s-0.3,0.8-0.5,1.1s-0.4,0.7-0.6,1
		c-0.2,0.3-0.4,0.5-0.6,0.6c-0.2,0.2-0.5,0.2-0.7,0.2c-0.3,0-0.5-0.1-0.8-0.3c-0.3-0.2-0.5-0.4-0.8-0.7c-0.3-0.3-0.5-0.6-0.7-0.9
		c-0.2-0.3-0.4-0.6-0.5-0.9c-0.2-0.3-0.3-0.6-0.5-0.9c-0.1-0.3-0.3-0.6-0.4-0.9c-0.1-0.3-0.2-0.5-0.2-0.7c-0.4-1.9-0.8-3.8-1.1-5.6
		c-0.3-1.8-0.7-3.6-1.1-5.4c-0.4-1.8-1-3.5-1.6-5.3s-1.5-3.5-2.5-5.3c-0.3-0.5-0.6-0.9-0.8-1.3c-0.5-0.7-1-1.3-1.5-1.8
		s-1.1-1-1.7-1.3s-1.2-0.5-1.7-0.5s-1.2,0.2-1.7,0.6c-0.7,0.5-1.3,1.3-1.7,2.2s-0.6,2.1-0.6,3.3c0,1.3,0.1,2.6,0.4,4.1
		c0.3,1.5,0.7,3,1.2,4.6c0.6,1.6,1.2,3.2,2,4.8c0.8,1.6,1.7,3.2,2.7,4.7c-0.8,0.7-1.5,1.5-2.1,2.4c-0.6,0.9-1,1.8-1.3,2.8
		c-0.3,1-0.5,2-0.6,3s0,2,0.1,3c0.1,1,0.4,1.9,0.7,2.8c0.2,0.5,0.5,1,0.7,1.5c0,0.4,0,0.7-0.1,1.1c-0.1,0.5-0.1,0.9-0.2,1.3
		s-0.2,0.8-0.4,1.1c-0.2,0.3-0.3,0.6-0.6,0.8c-0.3,0.3-0.6,0.3-1,0.1c-0.3-0.2-0.7-0.6-1.2-1.1c-0.5-0.6-1-1.3-1.5-2
		c-0.5-0.8-0.9-1.5-1.4-2.3c-0.4-0.8-0.9-1.5-1.3-2.3c-0.4-0.7-0.9-1.4-1.3-1.9c-0.3-0.3-0.5-0.6-0.8-0.7c-0.2-0.1-0.4-0.2-0.6-0.2
		c-0.2,0-0.4,0-0.6,0.1c-0.2,0.1-0.3,0.2-0.5,0.3c-0.1,0.1-0.2,0.2-0.4,0.3c-0.1,0.1-0.2,0.2-0.4,0.3c-0.1,0.1-0.3,0.2-0.4,0.3
		s-0.3,0.2-0.5,0.2s-0.4,0.1-0.6,0c-0.2,0-0.4-0.1-0.6-0.1s-0.4-0.1-0.6,0c-0.2,0-0.5,0.1-0.7,0.4c-0.8,0.6-1.4,1.4-1.8,2.4
		c-0.5,0.9-0.8,2-1,3.1c-0.2,1.1-0.3,2.3-0.2,3.5c0,0.5,0.1,1,0.2,1.5c-1.1-0.1-2.2-0.2-3.4-0.2c-1.3,0-2.5,0.1-3.8,0.3
		c-1.2,0.2-2.4,0.6-3.6,1.2c-1.1,0.5-2.2,1.3-3.2,2.3c-1.1,1.1-1.9,2.3-2.4,3.7c-0.5,1.3-0.7,2.6-0.6,4c0.1,1.3,0.5,2.7,1.1,4
		c0.6,1.3,1.5,2.5,2.6,3.6c0.5,0.5,1,0.9,1.5,1.3c0,0.5-0.1,1-0.2,1.4c-0.1,0.7-0.3,1.3-0.5,1.8s-0.5,1-0.8,1.4
		c-0.3,0.4-0.7,0.7-1.1,0.7c-0.4,0.1-0.9,0-1.5-0.1c-0.6-0.2-1.2-0.4-1.8-0.7c-0.7-0.3-1.4-0.6-2.1-0.9c-0.7-0.3-1.5-0.6-2.3-0.9
		s-1.6-0.4-2.5-0.5c-0.8-0.1-1.7,0-2.6,0.2c-0.9,0.2-1.8,0.6-2.7,1.2c0.9-1.4,1.6-2.7,2.1-4c0.5-1.3,0.8-2.5,1-3.6
		c0.2-1.2,0.2-2.2,0.1-3.2c-0.1-1-0.3-1.9-0.6-2.7s-0.7-1.5-1.2-2.2c-0.5-0.6-1-1.2-1.5-1.6c-0.9-0.6-1.7-1.1-2.7-1.3
		c-0.9-0.3-1.9-0.4-2.8-0.3c-0.9,0-1.9,0.2-2.8,0.5s-1.9,0.8-2.7,1.3c-0.9,0.5-1.7,1.2-2.5,1.9c-0.8,0.7-1.5,1.5-2.1,2.4
		c-1.4,1.9-2.5,4-3.3,6.1c-0.8,2.1-1.2,4.3-1.4,6.4c-0.2,2.2-0.1,4.3,0.3,6.4c0.4,2.1,1,4.2,1.9,6.1s2,3.8,3.4,5.5
		c1.4,1.7,3,3.2,4.7,4.5c1,0.7,2,1.4,3.2,2c1.1,0.6,2.3,1.1,3.4,1.5s2.3,0.7,3.5,0.8s2.3,0.1,3.3,0c1.1-0.2,2.1-0.5,3-1
		c0.9-0.5,1.7-1.2,2.4-2.1c0.9-1.2,1.3-2.6,1.2-4s-0.6-2.9-1.6-4.5s-2.3-3.3-4.1-5.1c-1.7-1.8-3.8-3.8-6.1-5.9l0.8-1.1
		c0.3-0.4,0.8-0.7,1.5-0.7c0.6,0,1.4,0.2,2.2,0.4c0.8,0.3,1.8,0.7,2.8,1.1c1,0.5,2,0.9,3.1,1.4c1.1,0.5,2.1,0.9,3.2,1.2
		s2.1,0.6,3.1,0.7c1,0.1,1.9,0,2.8-0.3c0.9-0.3,1.6-0.8,2.2-1.7c0.6-0.7,1-1.5,1.4-2.4c0.4-0.8,0.7-1.7,0.9-2.5
		c0.2-0.6,0.3-1.2,0.4-1.8c1,0.2,2,0.2,2.9-0.1c1-0.2,2-0.8,2.9-1.7c0.6-0.6,1.1-1.3,1.4-2.1c0.3-0.8,0.5-1.6,0.6-2.4
		s0.1-1.7-0.1-2.5c-0.1-0.9-0.4-1.7-0.7-2.5c-0.3-0.8-0.7-1.6-1.2-2.3c-0.5-0.7-1-1.4-1.6-2c-0.6-0.6-1.3-1.1-2.1-1.7
		s-1.6-0.9-2.5-1.2l0-0.3c0.6-0.1,1.3-0.3,2.2-0.4c0.9-0.1,1.8-0.3,2.7-0.4c0.9-0.1,1.8-0.2,2.7-0.2c0.2,0,0.4,0,0.5,0
		c0.3,1,0.6,2,1.1,3c0.5,1.1,1.1,2,1.8,2.8c0.6,0.7,1.3,1.3,2,1.6c0.7,0.4,1.4,0.6,2.2,0.7c0.7,0.1,1.4,0,2.1-0.2
		c0.7-0.2,1.3-0.5,1.8-1c0.5-0.4,0.9-0.9,1.3-1.5c0.4-0.6,0.6-1.2,0.9-1.8c0.2-0.6,0.4-1.3,0.5-1.9c0.1-0.6,0.2-1.2,0.2-1.8
		c1.1,0.6,2.1,0.9,3,1s1.7-0.2,2.4-0.8c0.6-0.5,1.1-1.2,1.4-2c0.3-0.8,0.6-1.6,0.8-2.5c0-0.1,0-0.1,0-0.2c0.3,0.2,0.6,0.3,0.9,0.4
		c0.8,0.3,1.5,0.4,2.3,0.3s1.6-0.4,2.3-0.9c0.5-0.4,1-0.8,1.4-1.4c0.4-0.5,0.8-1.1,1.1-1.8c0.3-0.6,0.6-1.3,0.8-2.1
		c0.2-0.7,0.4-1.4,0.5-2.2c0.8,0.5,1.5,0.8,2.1,0.9c0.7,0.1,1.3,0.2,1.8,0.1s1-0.2,1.4-0.3c0.4-0.2,0.6-0.3,0.8-0.4
		c0.3-0.2,0.6-0.5,0.8-0.8c0.3-0.3,0.5-0.7,0.8-1.1c0.2-0.4,0.5-0.9,0.7-1.3c0.2-0.5,0.4-0.9,0.6-1.4c0.2-0.5,0.4-1.1,0.7-1.7
		c0,0,0,0,0,0c0.3,0.5,0.6,1,0.9,1.4s0.7,0.8,1,1.1c0.4,0.3,0.8,0.4,1.2,0.5c0.4,0,0.9-0.1,1.4-0.4c0.4-0.2,0.7-0.5,0.9-0.9
		c0.2-0.4,0.3-0.9,0.3-1.5c-0.1-2.2-0.2-4.1-0.4-5.5c-0.1-1.5-0.2-2.6-0.3-3.6s-0.1-1.6-0.1-2.1c0-0.5,0-0.9,0-1.1l0.3-0.2
		c0.5,1.3,0.9,2.4,1.3,3.5c0.2,0.5,0.4,0.9,0.5,1.4c0.2,0.5,0.4,0.9,0.5,1.3s0.3,0.8,0.5,1.1c0.1,0.3,0.3,0.6,0.4,0.7
		c0.2,0.4,0.5,0.8,0.7,1.2s0.6,0.7,0.9,1s0.7,0.4,1,0.5c0.4,0.1,0.7,0,1.1-0.2c0.5-0.3,0.9-0.6,1.2-1.1c0.3-0.4,0.5-1,0.5-1.7
		l-1.7-11.8l0.3-0.2c0.4,1,0.8,1.9,1.3,2.8c0.4,0.9,0.9,1.8,1.3,2.5c0.5,0.8,1,1.6,1.4,2.2s1,1.2,1.5,1.6s1,0.7,1.4,0.8
		s0.9,0.1,1.4-0.2c0.9-0.5,1.7-1.1,2.2-1.8c0.6-0.7,1.1-1.3,1.5-2.1c0.3-0.5,0.5-1,0.7-1.6c0.2,0.3,0.4,0.5,0.6,0.8
		c0.6,0.6,1.2,1,1.8,1.3c0.7,0.3,1.4,0.4,2.1,0.4c0.7,0,1.4-0.1,2-0.4c0.6-0.2,1.1-0.6,1.7-1c0.5-0.4,1-0.9,1.4-1.5s0.8-1.1,1.1-1.7
		c0.3-0.6,0.5-1.1,0.7-1.6c0.9,0.9,1.7,1.5,2.5,1.8s1.7,0.3,2.5-0.1c0.7-0.3,1.4-0.8,2-1.4c0.6-0.7,1.1-1.4,1.5-2.2
		c0.2-0.3,0.3-0.6,0.4-0.9c-0.3,1.4-0.6,2.7-0.8,4c-0.2,0.9-0.3,1.8-0.4,2.7c-0.1,0.9-0.2,1.8-0.3,2.7c-0.1,0.9-0.1,1.7,0,2.4
		c0.1,0.8,0.2,1.4,0.3,2c0.3,1,0.7,1.9,1.1,2.7c0.4,0.8,0.9,1.5,1.4,2.1c0.5,0.5,1.1,0.9,1.7,1.1c0.6,0.2,1.4,0.2,2.1-0.1
		c1-0.3,1.8-1,2.4-2.1s1.1-2.4,1.3-4.1c0.2-1.7,0.2-3.6,0-5.7c-0.2-2.2-0.8-4.5-1.6-7l-0.1-0.4c1.2-0.2,2.1-0.4,2.8-0.5
		c0.7-0.1,1.2-0.2,1.6-0.2s0.6-0.1,0.8-0.1c0.2,0,0.3,0,0.4-0.1c0.8-0.3,1.6-0.6,2.3-1.1c0.7-0.5,1.4-1,2-1.7c0.6-0.6,1.2-1.3,1.6-2
		c0.5-0.7,0.8-1.4,1.1-2.1l-1.7-4.6C-104.7,249.6-105.2,250.4-105.7,251.3z M-240.9,314.2c-0.6,1.5-1.5,3.2-2.9,5.1
		c-0.9-0.8-1.6-1.5-2.2-2.2c-0.6-0.7-1.2-1.1-1.6-1.5l-0.2-0.1c-0.4-0.3-0.8-0.4-1.2-0.4c-0.4,0-0.8,0.3-1.2,0.9
		c-0.3,0.4-0.5,0.9-0.5,1.3c0,0.4,0,0.9,0.2,1.3c0.1,0.4,0.4,0.9,0.6,1.3s0.6,0.8,0.9,1.1c0.3,0.3,0.6,0.6,0.9,0.9s0.5,0.5,0.7,0.6
		l0.3,0.3c-0.1,0.1-0.2,0.2-0.4,0.4c-0.2,0.2-0.4,0.4-0.6,0.7s-0.5,0.5-0.7,0.7c-0.2,0.2-0.3,0.4-0.4,0.5c-0.1,0.2-0.2,0.4-0.2,0.5
		c0,0.2,0.1,0.4,0.2,0.5c0.1,0.2,0.2,0.3,0.4,0.4c0.1,0.1,0.3,0.2,0.4,0.3c0.5,0.4,1.1,0.4,1.8,0.2c0.7-0.2,1.6-0.6,2.7-1.2
		c0.3,0.2,0.6,0.5,1.1,0.9s1,0.8,1.7,1.3s1.3,1.1,2,1.7c0.7,0.6,1.3,1.2,2,1.9s1.2,1.3,1.8,2c0.5,0.7,1,1.3,1.3,1.9
		c0.3,0.6,0.6,1.2,0.6,1.7c0.1,0.5,0,1-0.3,1.4c-0.6,0.8-1.3,1.3-2.2,1.5c-0.9,0.2-1.8,0.2-2.8,0c-1-0.2-2-0.6-3.1-1.1
		s-2.1-1.1-3-1.8c-1.2-0.9-2.4-1.9-3.6-3.2c-1.2-1.2-2.2-2.5-3.2-4c-0.9-1.5-1.7-3-2.3-4.7c-0.6-1.7-0.9-3.4-1-5.2
		c-0.1-1.8,0.2-3.6,0.8-5.5s1.6-3.8,3-5.7c0.8-1,1.6-1.9,2.4-2.5c0.8-0.6,1.6-1,2.4-1.3s1.5-0.3,2.3-0.2s1.4,0.4,1.9,0.8
		c0.6,0.4,1.1,1,1.5,1.8c0.4,0.7,0.6,1.7,0.6,2.8C-240.1,311.4-240.4,312.7-240.9,314.2z M-215.8,303.7c0.6,0.6,1.1,1.3,1.6,2.1
		c0.5,0.8,0.9,1.6,1.2,2.3c0.3,0.8,0.4,1.5,0.5,2.2c0,0.7-0.1,1.2-0.5,1.5c-0.4,0.4-0.8,0.7-1.3,0.8c-0.5,0.1-0.9,0.1-1.4,0
		s-0.9-0.3-1.4-0.6c-0.5-0.3-0.9-0.7-1.3-1.1c-0.6-0.6-1.2-1.3-1.7-2.2c-0.5-0.8-0.9-1.7-1.2-2.5c-0.3-0.8-0.4-1.6-0.4-2.3
		c0-0.7,0.2-1.3,0.7-1.7c0.3-0.3,0.7-0.5,1.1-0.5c0.4-0.1,0.8,0,1.2,0.2c0.4,0.2,0.9,0.4,1.4,0.7
		C-216.8,302.8-216.3,303.2-215.8,303.7z M-199.1,299.9c-0.3,0.2-0.5,0.3-0.8,0.3s-0.5,0-0.8-0.2s-0.5-0.3-0.8-0.5
		c-0.3-0.2-0.5-0.5-0.7-0.7c-0.4-0.5-0.8-1-1.1-1.7s-0.6-1.3-0.9-2.1c-0.2-0.7-0.4-1.5-0.5-2.2c-0.1-0.8-0.1-1.5-0.1-2.2
		c0.1-0.7,0.2-1.3,0.4-1.9c0.2-0.6,0.6-1.1,1-1.4l3.1,5.7c0.3,0.4,0.5,0.9,0.8,1.6s0.5,1.3,0.7,2c0.2,0.7,0.3,1.4,0.2,2
		C-198.5,299-198.7,299.5-199.1,299.9z M-189.5,260.9c-0.5-1-0.8-2-1.1-2.9c-0.3-0.9-0.4-1.7-0.5-2.4c0-0.7,0.1-1.2,0.5-1.4
		c0.2-0.1,0.5-0.1,0.7,0c0.3,0.2,0.7,0.6,1.1,1.2c0.3,0.5,0.8,1.2,1.3,2c0.4,0.7,0.7,1.4,1.1,2.2s0.7,1.6,1,2.5s0.6,1.7,0.9,2.6
		c0.3,0.9,0.5,1.7,0.7,2.5c0.5,1.9,1,3.9,1.4,5.8l-0.1-0.2c-0.1-0.2-0.3-0.4-0.5-0.8c-0.2-0.3-0.5-0.7-0.8-1.2s-0.6-0.9-1-1.5
		c-0.3-0.6-0.7-1.1-1.1-1.7c-0.2-0.3-0.5-0.8-0.9-1.5s-0.8-1.5-1.3-2.4S-189,261.9-189.5,260.9z M-181.9,286.1
		c-0.1,0.3-0.2,0.6-0.3,0.8s-0.3,0.5-0.5,0.6c-0.4,0.3-0.8,0.5-1.1,0.5s-0.6,0.1-0.9,0s-0.5-0.2-0.7-0.4s-0.4-0.4-0.6-0.6
		c-0.4-0.6-0.8-1.3-1.1-2.2c-0.3-0.9-0.5-1.8-0.6-2.8c-0.1-1-0.1-2,0.1-3.1c0.2-1,0.5-2,1-2.9c0,0,0.1,0.1,0.3,0.3
		c0.2,0.2,0.4,0.5,0.7,0.9c0.3,0.4,0.6,0.8,0.9,1.3c0.3,0.5,0.7,0.9,1,1.3s0.6,0.8,0.9,1.2s0.5,0.6,0.6,0.7c0.2,0.9,0.3,1.7,0.4,2.5
		c0,0.3,0,0.7,0,1C-181.8,285.5-181.8,285.8-181.9,286.1z M-134.7,261.3c0,0.7-0.2,1.4-0.4,2c-0.2,0.6-0.6,1-1.1,1.2
		c-0.3,0.1-0.6,0.2-0.8,0.1c-0.3-0.1-0.5-0.2-0.7-0.4c-0.2-0.2-0.4-0.4-0.6-0.7c-0.2-0.3-0.3-0.6-0.5-0.9c-0.2-0.6-0.4-1.2-0.6-2
		c-0.1-0.7-0.2-1.5-0.2-2.2s0.1-1.5,0.2-2.3c0.1-0.8,0.3-1.5,0.6-2.1c0.3-0.7,0.6-1.2,1-1.7c0.4-0.5,0.9-0.8,1.4-1.1l1.2,6.3
		c0.1,0.4,0.2,1,0.3,1.7C-134.7,259.9-134.7,260.6-134.7,261.3z M-117.1,274.4c-0.1,0.3-0.2,0.5-0.4,0.6c-0.3,0.1-0.5,0.1-0.7-0.1
		s-0.5-0.3-0.6-0.5c-0.2-0.2-0.3-0.4-0.5-0.7c-0.1-0.2-0.2-0.4-0.2-0.5c-0.1-0.2-0.1-0.5-0.2-0.9c-0.1-0.4-0.1-0.9-0.2-1.5
		c0-0.6-0.1-1.2-0.1-1.9c0-0.7,0-1.4,0-2.1c0-0.7,0-1.4,0.1-2.1s0.1-1.3,0.3-1.8c0.1,0.3,0.2,0.6,0.3,1c0.1,0.3,0.2,0.8,0.4,1.3
		c0.1,0.5,0.3,1.2,0.5,1.9c0.1,0.4,0.2,0.9,0.4,1.4c0.2,0.5,0.3,1.1,0.5,1.7c0.2,0.6,0.3,1.1,0.4,1.7s0.2,1,0.3,1.5
		C-117,273.8-117,274.1-117.1,274.4z M-115.6,254.2c-0.4,0.7-1,1.4-1.7,2.1c-0.3-0.8-0.5-1.6-0.7-2.4s-0.4-1.6-0.5-2.4
		c-0.1-0.8-0.2-1.5-0.2-2.3c0-0.7,0-1.4,0.1-1.9s0.3-1.1,0.6-1.5c0.3-0.4,0.7-0.7,1.2-0.8c0.4-0.1,0.8-0.1,1.2,0
		c0.3,0.2,0.6,0.4,0.8,0.7s0.4,0.7,0.5,1.1c0.1,0.4,0.2,0.8,0.2,1.1c0,0.7,0,1.4,0,2.1s-0.2,1.4-0.5,2.1
		C-114.8,252.8-115.2,253.5-115.6,254.2z"/>
</g>
</svg>
