<?xml version="1.0" encoding="UTF-8" standalone="no"?>
<svg width="8px" height="5px" viewBox="0 0 8 5" version="1.1" xmlns="http://www.w3.org/2000/svg" xmlns:xlink="http://www.w3.org/1999/xlink" xmlns:sketch="http://www.bohemiancoding.com/sketch/ns">
    <!-- Generator: Sketch 3.3.2 (12043) - http://www.bohemiancoding.com/sketch -->
    <title>› 3</title>
    <desc>Created with Sketch.</desc>
    <defs></defs>
    <g id="Page-1" stroke="none" stroke-width="1" fill="none" fill-rule="evenodd" sketch:type="MSPage">
        <g id="Customer-Journey---Actie" sketch:type="MSArtboardGroup" transform="translate(-1248.000000, -935.000000)" font-weight="526" font-family="Open Sans" fill="#F1AF2A" font-size="16">
            <g id="Rectangle-66" sketch:type="MSLayerGroup" transform="translate(935.000000, 628.000000)">
                <text id="›-3" sketch:type="MSTextLayer" transform="translate(319.000000, 310.000000) rotate(-270.000000) translate(-319.000000, -310.000000) ">
                    <tspan x="316" y="316">›</tspan>
                </text>
            </g>
        </g>
    </g>
</svg>