<?xml version="1.0" encoding="UTF-8" standalone="no"?>
<svg width="1440px" height="87px" viewBox="0 0 1440 87" version="1.1" xmlns="http://www.w3.org/2000/svg" xmlns:xlink="http://www.w3.org/1999/xlink" xmlns:sketch="http://www.bohemiancoding.com/sketch/ns">
    <!-- Generator: Sketch 3.3.2 (12043) - http://www.bohemiancoding.com/sketch -->
    <title>Rectangle 7</title>
    <desc>Created with Sketch.</desc>
    <defs></defs>
    <g id="Page-1" stroke="none" stroke-width="1" fill="none" fill-rule="evenodd" sketch:type="MSPage">
        <path d="M0,0.760009766 L1440,0.760009766 L1440,31.8603352 L0,87 L0,0.760009766 Z" id="Rectangle-7" fill="#FFFFFF" sketch:type="MSShapeGroup"></path>
    </g>
</svg>